<?xml version="1.0" encoding="utf-8"?>
<!-- Generator: Adobe Illustrator 21.0.2, SVG Export Plug-In . SVG Version: 6.00 Build 0)  -->
<svg version="1.1" id="Layer_1" xmlns="http://www.w3.org/2000/svg" xmlns:xlink="http://www.w3.org/1999/xlink" x="0px" y="0px"
	 viewBox="0 0 32 32" style="enable-background:new 0 0 32 32;" xml:space="preserve">
<style type="text/css">
	.st0{clip-path:url(#SVGID_2_);}
	.st1{clip-path:url(#SVGID_4_);fill:#5E9732;}
	.st2{clip-path:url(#SVGID_6_);}
	.st3{clip-path:url(#SVGID_8_);fill:#5E9732;}
	.st4{clip-path:url(#SVGID_10_);}
	.st5{clip-path:url(#SVGID_12_);fill:#5E9732;}
	.st6{clip-path:url(#SVGID_14_);}
	.st7{clip-path:url(#SVGID_16_);fill:#5E9732;}
</style>
<g>
	<g>
		<defs>
			<path id="SVGID_1_" d="M14.4,0c0,0-2.1,3.1-2.6,6.2c-0.6,3.3-0.2,6.7-0.2,6.7s3.4-2.2,7.3-2.6c4.2-0.5,8.6,0.8,8.6,0.8
				S26.3,7,22.6,4C19.8,1.6,14.4,0,14.4,0"/>
		</defs>
		<clipPath id="SVGID_2_">
			<use xlink:href="#SVGID_1_"  style="overflow:visible;"/>
		</clipPath>
		<g class="st0">
			<defs>
				<rect id="SVGID_3_" x="-33.4" y="-23.5" width="2145" height="1838.3"/>
			</defs>
			<clipPath id="SVGID_4_">
				<use xlink:href="#SVGID_3_"  style="overflow:visible;"/>
			</clipPath>
			<rect x="3.1" y="-8.4" class="st1" width="32.8" height="29.6"/>
		</g>
	</g>
	<g>
		<defs>
			<path id="SVGID_5_" d="M31.9,14.5c0,0-3.1-1.9-6.2-2.6c-3.4-0.8-5.8-0.6-5.8-0.6s2.4,3.1,2.9,7c0.5,4.2-0.8,8.6-0.8,8.6
				s3.1-1.1,6.1-4.7C30.5,19.4,31.9,14.5,31.9,14.5"/>
		</defs>
		<clipPath id="SVGID_6_">
			<use xlink:href="#SVGID_5_"  style="overflow:visible;"/>
		</clipPath>
		<g class="st2">
			<defs>
				<rect id="SVGID_7_" x="-33.4" y="-23.5" width="2145" height="1838.3"/>
			</defs>
			<clipPath id="SVGID_8_">
				<use xlink:href="#SVGID_7_"  style="overflow:visible;"/>
			</clipPath>
			<rect x="11.6" y="2.9" class="st3" width="28.7" height="32.4"/>
		</g>
	</g>
	<g>
		<defs>
			<path id="SVGID_9_" d="M18.3,32c0,0,1.9-3.1,2.5-6.2c0.8-3.4,0.6-6.5,0.6-6.5s-3.6,2.3-7.5,2.8c-4.1,0.5-8.6-0.7-8.6-0.7
				s1.1,3.7,4.7,6.7C12.9,30.4,18.3,32,18.3,32"/>
		</defs>
		<clipPath id="SVGID_10_">
			<use xlink:href="#SVGID_9_"  style="overflow:visible;"/>
		</clipPath>
		<g class="st4">
			<defs>
				<rect id="SVGID_11_" x="-33.4" y="-23.5" width="2145" height="1838.3"/>
			</defs>
			<clipPath id="SVGID_12_">
				<use xlink:href="#SVGID_11_"  style="overflow:visible;"/>
			</clipPath>
			<rect x="-3" y="10.9" class="st5" width="32.9" height="29.4"/>
		</g>
	</g>
	<g>
		<defs>
			<path id="SVGID_13_" d="M0.1,17.9c0,0,3.1,2,6.2,2.6c3.1,0.6,6.3,0,6.3,0S10.5,17,10,13c-0.5-4.1,0.7-8.6,0.7-8.6
				S7.2,6.1,4.2,9.8C1.9,12.6,0.1,17.9,0.1,17.9"/>
		</defs>
		<clipPath id="SVGID_14_">
			<use xlink:href="#SVGID_13_"  style="overflow:visible;"/>
		</clipPath>
		<g class="st6">
			<defs>
				<rect id="SVGID_15_" x="-33.4" y="-23.5" width="2145" height="1838.3"/>
			</defs>
			<clipPath id="SVGID_16_">
				<use xlink:href="#SVGID_15_"  style="overflow:visible;"/>
			</clipPath>
			<rect x="-8.3" y="-4" class="st7" width="29.2" height="33"/>
		</g>
	</g>
</g>
</svg>
